{
  "bomFormat": "CycloneDX",
  "specVersion": "1.4",
  "serialNumber": "urn:uuid:0f480225-9295-4ca1-b600-727f289b0254",
  "version": 1,
  "metadata": {
    "timestamp": "2024-08-06T06:58:35Z",
    "tools": [
      {
        "vendor": "GitLab",
        "name": "Gemnasium",
        "version": "5.4.0"
      }
    ],
    "authors": [
      {
        "name": "GitLab",
        "email": "support@gitlab.com"
      }
    ],
    "properties": [
      {
        "name": "gitlab:dependency_scanning:input_file:path",
        "value": "qa/fixtures/swift/Package.resolved"
      },
      {
        "name": "gitlab:dependency_scanning:package_manager:name",
        "value": "swift"
      },
      {
        "name": "gitlab:meta:schema_version",
        "value": "1"
      }
    ]
  },
  "components": [
    {
      "name": "github.com/Alamofire/Alamofire",
      "version": "5.9.1",
      "purl": "pkg:swift/github.com/Alamofire/Alamofire@5.9.1",
      "type": "library",
      "bom-ref": "pkg:swift/github.com/Alamofire/Alamofire@5.9.1"
    },
    {
      "name": "github.com/apple/swift-async-algorithms",
      "version": "1.0.1",
      "purl": "pkg:swift/github.com/apple/swift-async-algorithms@1.0.1",
      "type": "library",
      "bom-ref": "pkg:swift/github.com/apple/swift-async-algorithms@1.0.1"
    },
    {
      "name": "github.com/apple/swift-atomics",
      "version": "1.2.0",
      "purl": "pkg:swift/github.com/apple/swift-atomics@1.2.0",
      "type": "library",
      "bom-ref": "pkg:swift/github.com/apple/swift-atomics@1.2.0"
    },
    {
      "name": "github.com/apple/swift-collections",
      "version": "1.1.1",
      "purl": "pkg:swift/github.com/apple/swift-collections@1.1.1",
      "type": "library",
      "bom-ref": "pkg:swift/github.com/apple/swift-collections@1.1.1"
    },
    {
      "name": "github.com/apple/swift-crypto",
      "version": "3.4.0",
      "purl": "pkg:swift/github.com/apple/swift-crypto@3.4.0",
      "type": "library",
      "bom-ref": "pkg:swift/github.com/apple/swift-crypto@3.4.0"
    },
    {
      "name": "github.com/apple/swift-log",
      "version": "1.6.1",
      "purl": "pkg:swift/github.com/apple/swift-log@1.6.1",
      "type": "library",
      "bom-ref": "pkg:swift/github.com/apple/swift-log@1.6.1"
    },
    {
      "name": "github.com/apple/swift-metrics",
      "version": "2.5.0",
      "purl": "pkg:swift/github.com/apple/swift-metrics@2.5.0",
      "type": "library",
      "bom-ref": "pkg:swift/github.com/apple/swift-metrics@2.5.0"
    },
    {
      "name": "github.com/apple/swift-nio",
      "version": "2.67.0",
      "purl": "pkg:swift/github.com/apple/swift-nio@2.67.0",
      "type": "library",
      "bom-ref": "pkg:swift/github.com/apple/swift-nio@2.67.0"
    },
    {
      "name": "github.com/apple/swift-nio-ssl",
      "version": "2.27.0",
      "purl": "pkg:swift/github.com/apple/swift-nio-ssl@2.27.0",
      "type": "library",
      "bom-ref": "pkg:swift/github.com/apple/swift-nio-ssl@2.27.0"
    },
    {
      "name": "github.com/apple/swift-nio-transport-services",
      "version": "1.21.0",
      "purl": "pkg:swift/github.com/apple/swift-nio-transport-services@1.21.0",
      "type": "library",
      "bom-ref": "pkg:swift/github.com/apple/swift-nio-transport-services@1.21.0"
    },
    {
      "name": "github.com/apple/swift-system",
      "version": "1.3.0",
      "purl": "pkg:swift/github.com/apple/swift-system@1.3.0",
      "type": "library",
      "bom-ref": "pkg:swift/github.com/apple/swift-system@1.3.0"
    },
    {
      "name": "github.com/swift-server/swift-service-lifecycle",
      "version": "2.6.0",
      "purl": "pkg:swift/github.com/swift-server/swift-service-lifecycle@2.6.0",
      "type": "library",
      "bom-ref": "pkg:swift/github.com/swift-server/swift-service-lifecycle@2.6.0"
    },
    {
      "name": "github.com/vapor/postgres-nio",
      "version": "1.0.0",
      "purl": "pkg:swift/github.com/vapor/postgres-nio@1.0.0",
      "type": "library",
      "bom-ref": "pkg:swift/github.com/vapor/postgres-nio@1.0.0"
    }
  ]
}
