{
  "bomFormat": "CycloneDX",
  "specVersion": "1.4",
  "serialNumber": "urn:uuid:d83f757c-5f97-4793-9fad-0d3d22491443",
  "version": 1,
  "metadata": {
    "timestamp": "2024-09-12T12:34:16Z",
    "tools": [
      {
        "vendor": "GitLab",
        "name": "dependency-scanning",
        "version": "not-configured"
      }
    ],
    "authors": [
      {
        "name": "GitLab",
        "email": "support@gitlab.com"
      }
    ],
    "properties": [
      {
        "name": "gitlab:dependency_scanning:input_file:path",
        "value": "qa/fixtures/poetry-lock/poetry.lock"
      },
      {
        "name": "gitlab:dependency_scanning:package_manager:name",
        "value": "poetry"
      },
      {
        "name": "gitlab:meta:schema_version",
        "value": "1"
      }
    ]
  },
  "components": [
    {
      "name": "atomicwrites",
      "version": "1.4.1",
      "purl": "pkg:pypi/atomicwrites@1.4.1",
      "type": "library",
      "bom-ref": "pkg:pypi/atomicwrites@1.4.1"
    },
    {
      "name": "attrs",
      "version": "24.2.0",
      "purl": "pkg:pypi/attrs@24.2.0",
      "type": "library",
      "bom-ref": "pkg:pypi/attrs@24.2.0"
    },
    {
      "name": "colorama",
      "version": "0.4.6",
      "purl": "pkg:pypi/colorama@0.4.6",
      "type": "library",
      "bom-ref": "pkg:pypi/colorama@0.4.6"
    },
    {
      "name": "django",
      "version": "2.2.1",
      "purl": "pkg:pypi/django@2.2.1",
      "type": "library",
      "bom-ref": "pkg:pypi/django@2.2.1"
    },
    {
      "name": "djangorestframework",
      "version": "3.8.2",
      "purl": "pkg:pypi/djangorestframework@3.8.2",
      "type": "library",
      "bom-ref": "pkg:pypi/djangorestframework@3.8.2"
    },
    {
      "name": "importlib-metadata",
      "version": "8.5.0",
      "purl": "pkg:pypi/importlib-metadata@8.5.0",
      "type": "library",
      "bom-ref": "pkg:pypi/importlib-metadata@8.5.0"
    },
    {
      "name": "more-itertools",
      "version": "10.5.0",
      "purl": "pkg:pypi/more-itertools@10.5.0",
      "type": "library",
      "bom-ref": "pkg:pypi/more-itertools@10.5.0"
    },
    {
      "name": "packaging",
      "version": "24.1",
      "purl": "pkg:pypi/packaging@24.1",
      "type": "library",
      "bom-ref": "pkg:pypi/packaging@24.1"
    },
    {
      "name": "pluggy",
      "version": "0.13.1",
      "purl": "pkg:pypi/pluggy@0.13.1",
      "type": "library",
      "bom-ref": "pkg:pypi/pluggy@0.13.1"
    },
    {
      "name": "py",
      "version": "1.11.0",
      "purl": "pkg:pypi/py@1.11.0",
      "type": "library",
      "bom-ref": "pkg:pypi/py@1.11.0"
    },
    {
      "name": "pytest",
      "version": "4.6.5",
      "purl": "pkg:pypi/pytest@4.6.5",
      "type": "library",
      "bom-ref": "pkg:pypi/pytest@4.6.5"
    },
    {
      "name": "pytz",
      "version": "2019.2",
      "purl": "pkg:pypi/pytz@2019.2",
      "type": "library",
      "bom-ref": "pkg:pypi/pytz@2019.2"
    },
    {
      "name": "requests",
      "version": "2.5.2",
      "purl": "pkg:pypi/requests@2.5.2",
      "type": "library",
      "bom-ref": "pkg:pypi/requests@2.5.2"
    },
    {
      "name": "six",
      "version": "1.16.0",
      "purl": "pkg:pypi/six@1.16.0",
      "type": "library",
      "bom-ref": "pkg:pypi/six@1.16.0"
    },
    {
      "name": "sqlparse",
      "version": "0.3.0",
      "purl": "pkg:pypi/sqlparse@0.3.0",
      "type": "library",
      "bom-ref": "pkg:pypi/sqlparse@0.3.0"
    },
    {
      "name": "wcwidth",
      "version": "0.2.13",
      "purl": "pkg:pypi/wcwidth@0.2.13",
      "type": "library",
      "bom-ref": "pkg:pypi/wcwidth@0.2.13"
    },
    {
      "name": "werkzeug",
      "version": "0.15.2",
      "purl": "pkg:pypi/werkzeug@0.15.2",
      "type": "library",
      "bom-ref": "pkg:pypi/werkzeug@0.15.2"
    },
    {
      "name": "zipp",
      "version": "3.20.1",
      "purl": "pkg:pypi/zipp@3.20.1",
      "type": "library",
      "bom-ref": "pkg:pypi/zipp@3.20.1"
    }
  ],
  "dependencies": [
    {
      "ref": "pkg:pypi/django@2.2.1",
      "dependsOn": [
        "pkg:pypi/pytz@2019.2",
        "pkg:pypi/sqlparse@0.3.0"
      ]
    },
    {
      "ref": "pkg:pypi/importlib-metadata@8.5.0",
      "dependsOn": [
        "pkg:pypi/zipp@3.20.1"
      ]
    },
    {
      "ref": "pkg:pypi/pytest@4.6.5",
      "dependsOn": [
        "pkg:pypi/atomicwrites@1.4.1",
        "pkg:pypi/attrs@24.2.0",
        "pkg:pypi/colorama@0.4.6",
        "pkg:pypi/importlib-metadata@8.5.0",
        "pkg:pypi/more-itertools@10.5.0",
        "pkg:pypi/packaging@24.1",
        "pkg:pypi/pluggy@0.13.1",
        "pkg:pypi/py@1.11.0",
        "pkg:pypi/six@1.16.0",
        "pkg:pypi/wcwidth@0.2.13"
      ]
    }
  ]
}
