module gitlab.com/gitlab-org/security-products/analyzers/dependency-scanning

go 1.22.5

require (
	github.com/BurntSushi/toml v1.3.2
	github.com/google/uuid v1.6.0
	github.com/package-url/packageurl-go v0.1.3
	github.com/sirupsen/logrus v1.9.3
	github.com/stretchr/testify v1.9.0
	github.com/urfave/cli/v2 v2.27.4
	gitlab.com/gitlab-org/security-products/analyzers/command/v3 v3.1.0
	gitlab.com/gitlab-org/security-products/analyzers/common/v3 v3.4.0
	gitlab.com/gitlab-org/security-products/analyzers/report/v5 v5.3.0
	golang.org/x/mod v0.14.0
	gonum.org/v1/gonum v0.15.0
	gopkg.in/yaml.v3 v3.0.1
)

require (
	dario.cat/mergo v1.0.0 // indirect
	github.com/Microsoft/go-winio v0.6.1 // indirect
	github.com/ProtonMail/go-crypto v0.0.0-20230828082145-3c4c8a2d2371 // indirect
	github.com/bmatcuk/doublestar v1.3.4 // indirect
	github.com/cloudflare/circl v1.3.3 // indirect
	github.com/cpuguy83/go-md2man/v2 v2.0.4 // indirect
	github.com/cyphar/filepath-securejoin v0.2.4 // indirect
	github.com/davecgh/go-spew v1.1.1 // indirect
	github.com/emirpasic/gods v1.18.1 // indirect
	github.com/go-git/gcfg v1.5.1-0.20230307220236-3a3c6141e376 // indirect
	github.com/go-git/go-billy/v5 v5.5.0 // indirect
	github.com/go-git/go-git/v5 v5.11.0 // indirect
	github.com/golang/groupcache v0.0.0-20210331224755-41bb18bfe9da // indirect
	github.com/jbenet/go-context v0.0.0-20150711004518-d14ea06fba99 // indirect
	github.com/kevinburke/ssh_config v1.2.0 // indirect
	github.com/otiai10/copy v1.11.0 // indirect
	github.com/pelletier/go-toml v1.9.5 // indirect
	github.com/pjbgf/sha1cd v0.3.0 // indirect
	github.com/pmezard/go-difflib v1.0.0 // indirect
	github.com/russross/blackfriday/v2 v2.1.0 // indirect
	github.com/sergi/go-diff v1.2.0 // indirect
	github.com/skeema/knownhosts v1.2.1 // indirect
	github.com/xanzy/ssh-agent v0.3.3 // indirect
	github.com/xrash/smetrics v0.0.0-20240521201337-686a1a2994c1 // indirect
	gitlab.com/gitlab-org/security-products/analyzers/ruleset/v3 v3.0.0 // indirect
	golang.org/x/crypto v0.16.0 // indirect
	golang.org/x/net v0.19.0 // indirect
	golang.org/x/sys v0.22.0 // indirect
	golang.org/x/tools v0.15.0 // indirect
	gopkg.in/warnings.v0 v0.1.2 // indirect
	gopkg.in/yaml.v2 v2.4.0 // indirect
)
